<svg xmlns="http://www.w3.org/2000/svg" width="68.047" height="56.983" viewBox="0 0 68.047 56.983">
  <g id="Group_665" data-name="Group 665" transform="translate(-1559.5 -5571.964)">
    <path id="Icon_awesome-cloud" data-name="Icon awesome-cloud" d="M57.16,22.941A10.219,10.219,0,0,0,47.633,9.055a10.155,10.155,0,0,0-5.667,1.722,17.013,17.013,0,0,0-31.759,8.485c0,.287.011.574.021.861a15.315,15.315,0,0,0,5.082,29.76H54.438A13.609,13.609,0,0,0,57.16,22.941Z" transform="translate(1559.5 5569.714)" fill="#4b93ce"/>
    <path id="Icon_awesome-cloud-2" data-name="Icon awesome-cloud" d="M46,18.9A8.224,8.224,0,0,0,38.333,7.726a8.172,8.172,0,0,0-4.561,1.386A13.692,13.692,0,0,0,8.214,15.94c0,.231.009.462.017.693a12.325,12.325,0,0,0,4.09,23.95H43.81A10.952,10.952,0,0,0,46,18.9Z" transform="translate(1566.5 5587.364)" fill="#4b93ce" stroke="#fff" stroke-width="2"/>
  </g>
</svg>
