<svg xmlns="http://www.w3.org/2000/svg" width="9.535" height="4.802" viewBox="0 0 9.535 4.802">
  <path id="Path_4622" data-name="Path 4622" d="M1224.838,74.24h9.535l-4.843,4.8Z" transform="translate(-1224.838 -74.24)" fill="#4b93ce"/>
</svg>
