<svg xmlns="http://www.w3.org/2000/svg" width="28.584" height="34.73" viewBox="0 0 28.584 34.73">
  <g id="Group_615" data-name="Group 615" transform="translate(2 2)">
    <g id="Group_850" data-name="Group 850">
      <g id="Group_849" data-name="Group 849">
        <g id="Group_848" data-name="Group 848">
          <g id="Group_847" data-name="Group 847">
            <g id="Group_846" data-name="Group 846">
              <g id="Group_845" data-name="Group 845">
                <g id="Group_902" data-name="Group 902">
                  <g id="Group_901" data-name="Group 901">
                    <g id="Group_900" data-name="Group 900">
                      <g id="Group_899" data-name="Group 899">
                        <g id="Group_898" data-name="Group 898">
                          <g id="Group_897" data-name="Group 897">
                            <g id="Group_896" data-name="Group 896">
                              <g id="Group_895" data-name="Group 895">
                                <g id="Group_894" data-name="Group 894">
                                  <path id="Icon_feather-shield" data-name="Icon feather-shield" d="M18.292,33.73s12.292-6.146,12.292-15.365V7.61L18.292,3,6,7.61V18.365C6,27.584,18.292,33.73,18.292,33.73Z" transform="translate(-6 -3)" fill="none" stroke="#4b93ce" stroke-linecap="round" stroke-linejoin="round" stroke-width="4"/>
                                </g>
                              </g>
                            </g>
                          </g>
                        </g>
                      </g>
                    </g>
                  </g>
                </g>
              </g>
            </g>
          </g>
        </g>
      </g>
    </g>
    <g id="Group_872" data-name="Group 872">
      <g id="Group_871" data-name="Group 871">
        <g id="Group_893" data-name="Group 893">
          <g id="Group_892" data-name="Group 892">
            <g id="Group_891" data-name="Group 891">
              <g id="Group_890" data-name="Group 890">
                <g id="Group_889" data-name="Group 889">
                  <g id="Group_888" data-name="Group 888">
                    <g id="Group_887" data-name="Group 887">
                      <g id="Group_886" data-name="Group 886">
                        <g id="Group_885" data-name="Group 885">
                          <g id="Group_884" data-name="Group 884">
                            <g id="Group_883" data-name="Group 883">
                              <g id="Group_882" data-name="Group 882">
                                <g id="Group_881" data-name="Group 881">
                                  <g id="Group_880" data-name="Group 880">
                                    <g id="Group_879" data-name="Group 879">
                                      <g id="Group_878" data-name="Group 878">
                                        <g id="Group_877" data-name="Group 877">
                                          <g id="Group_876" data-name="Group 876">
                                            <g id="Group_875" data-name="Group 875">
                                              <g id="Group_874" data-name="Group 874">
                                                <g id="Group_873" data-name="Group 873">
                                                  <path id="Icon_feather-check" data-name="Icon feather-check" d="M20.039,9l-9.652,9.652L6,14.265" transform="translate(-0.727 0.687)" fill="none" stroke="#4b93ce" stroke-linecap="round" stroke-linejoin="round" stroke-width="4"/>
                                                </g>
                                              </g>
                                            </g>
                                          </g>
                                        </g>
                                      </g>
                                    </g>
                                  </g>
                                </g>
                              </g>
                            </g>
                          </g>
                        </g>
                      </g>
                    </g>
                  </g>
                </g>
              </g>
            </g>
          </g>
        </g>
      </g>
    </g>
  </g>
</svg>
